{"page":5,"total_results":410072,"total_pages":20504,"results":[{"vote_count":11343,"id":672,"video":false,"vote_average":7.7,"title":"Harry Potter and the Chamber of Secrets","popularity":39.743,"poster_path":"\/sdEOH0992YZ0QSxgXNIGLq1ToUi.jpg","original_language":"en","original_title":"Harry Potter and the Chamber of Secrets","genre_ids":[12,14,10751],"backdrop_path":"\/xACx8htL9Ubz1qGe0gU2ggHonxV.jpg","adult":false,"overview":"Ignoring threats to his life, Harry returns to Hogwarts to investigate – aided by Ron and Hermione – a mysterious series of attacks.","release_date":"2002-11-13"},{"vote_count":2790,"id":490132,"video":false,"vote_average":8.3,"title":"Green Book","popularity":39.54,"poster_path":"\/7BsvSuDQuoqhWmU2fL7W2GOcZHU.jpg","original_language":"en","original_title":"Green Book","genre_ids":[18,35,10402],"backdrop_path":"\/78PjwaykLY2QqhMfWRDvmfbC6EV.jpg","adult":false,"overview":"Tony Lip, a bouncer in 1962, is hired to drive pianist Don Shirley on a tour through the Deep South in the days when African Americans, forced to find alternate accommodations and services due to segregation laws below the Mason-Dixon Line, relied on a guide called The Negro Motorist Green Book.","release_date":"2018-11-16"},{"vote_count":19605,"id":293660,"video":false,"vote_average":7.6,"title":"Deadpool","popularity":39.349,"poster_path":"\/inVq3FRqcYIRl2la8iZikYYxFNR.jpg","original_language":"en","original_title":"Deadpool","genre_ids":[28,12,35],"backdrop_path":"\/n1y094tVDFATSzkTnFxoGZ1qNsG.jpg","adult":false,"overview":"Deadpool tells the origin story of former Special Forces operative turned mercenary Wade Wilson, who after being subjected to a rogue experiment that leaves him with accelerated healing powers, adopts the alter ego Deadpool. Armed with his new abilities and a dark, twisted sense of humor, Deadpool hunts down the man who nearly destroyed his life.","release_date":"2016-02-09"},{"vote_count":10270,"id":807,"video":false,"vote_average":8.3,"title":"Se7en","popularity":39.26,"poster_path":"\/8zw8IL4zEPjkh8Aysdcd0FwGMb0.jpg","original_language":"en","original_title":"Se7en","genre_ids":[80,9648,53],"backdrop_path":"\/A0WKbRIojF9DUWG4XLCmg5JK6I5.jpg","adult":false,"overview":"Two homicide detectives are on a desperate hunt for a serial killer whose crimes are based on the \"seven deadly sins\" in this dark and haunting film that takes viewers from the tortured remains of one victim to the next. The seasoned Det. Sommerset researches each sin in an effort to get inside the killer's mind, while his novice partner, Mills, scoffs at his efforts to unravel the case.","release_date":"1995-09-22"},{"vote_count":8209,"id":181808,"video":false,"vote_average":7,"title":"Star Wars: The Last Jedi","popularity":39.196,"poster_path":"\/kOVEVeg59E0wsnXmF9nrh6OmWII.jpg","original_language":"en","original_title":"Star Wars: The Last Jedi","genre_ids":[14,12,878,28],"backdrop_path":"\/baNQpUlmX8shVmJBGHMSL5Y6MBl.jpg","adult":false,"overview":"Rey develops her newly discovered abilities with the guidance of Luke Skywalker, who is unsettled by the strength of her powers. Meanwhile, the Resistance prepares to do battle with the First Order.","release_date":"2017-12-13"},{"vote_count":7067,"id":8966,"video":false,"vote_average":6,"title":"Twilight","popularity":39.161,"poster_path":"\/lcMp3AONdNhjYE9MmTtMMTOiRDP.jpg","original_language":"en","original_title":"Twilight","genre_ids":[14,18,10749],"backdrop_path":"\/nEdBHjvRkKwEPD1Ps5A3rRiiLVN.jpg","adult":false,"overview":"When Bella Swan moves to a small town in the Pacific Northwest to live with her father, she meets the reclusive Edward Cullen, a mysterious classmate who reveals himself to be a 108-year-old vampire. Despite Edward's repeated cautions, Bella can't help but fall in love with him, a fatal move that endangers her own life when a coven of bloodsuckers try to challenge the Cullen clan.","release_date":"2008-11-20"},{"vote_count":12773,"id":122,"video":false,"vote_average":8.4,"title":"The Lord of the Rings: The Return of the King","popularity":38.696,"poster_path":"\/rCzpDGLbOoPwLjy3OAm5NUPOTrC.jpg","original_language":"en","original_title":"The Lord of the Rings: The Return of the King","genre_ids":[12,14,28],"backdrop_path":"\/8BPZO0Bf8TeAy8znF43z8soK3ys.jpg","adult":false,"overview":"Aragorn is revealed as the heir to the ancient kings as he, Gandalf and the other members of the broken fellowship struggle to save Gondor from Sauron's forces. Meanwhile, Frodo and Sam bring the ring closer to the heart of Mordor, the dark lord's realm.","release_date":"2003-12-01"},{"vote_count":0,"id":566555,"video":false,"vote_average":0,"title":"Detective Conan: The Fist of Blue Sapphire","popularity":38.441,"poster_path":"\/1GyvpwvgswOrHvxjnw2FBLNkTyo.jpg","original_language":"ja","original_title":"名探偵コナン 紺青の拳（フィスト）","genre_ids":[16,28,18,9648,35],"backdrop_path":"\/wf6VDSi4aFCZfuD8sX8JAKLfJ5m.jpg","adult":false,"overview":"23rd Detective Conan Movie.","release_date":"2019-04-12"},{"vote_count":4994,"id":332562,"video":false,"vote_average":7.5,"title":"A Star Is Born","popularity":38.167,"poster_path":"\/wrFpXMNBRj2PBiN4Z5kix51XaIZ.jpg","original_language":"en","original_title":"A Star Is Born","genre_ids":[18,10749],"backdrop_path":"\/wqtaHWOEZ3rXDJ8c6ZZShulbo18.jpg","adult":false,"overview":"Seasoned musician Jackson Maine discovers — and falls in love with — struggling artist Ally. She has just about given up on her dream to make it big as a singer — until Jack coaxes her into the spotlight. But even as Ally's career takes off, the personal side of their relationship is breaking down, as Jack fights an ongoing battle with his own internal demons.","release_date":"2018-10-03"},{"vote_count":12135,"id":10195,"video":false,"vote_average":6.7,"title":"Thor","popularity":38.114,"poster_path":"\/9zDwvsISU8bR15R2yN3kh1lfqve.jpg","original_language":"en","original_title":"Thor","genre_ids":[12,14,28],"backdrop_path":"\/LvmmDZxkTDqp0DX7mUo621ahdX.jpg","adult":false,"overview":"Against his father Odin's will, The Mighty Thor - a powerful but arrogant warrior god - recklessly reignites an ancient war. Thor is cast down to Earth and forced to live among humans as punishment. Once here, Thor learns what it takes to be a true hero when the most dangerous villain of his world sends the darkest forces of Asgard to invade Earth.","release_date":"2011-04-21"},{"vote_count":5634,"id":62,"video":false,"vote_average":8,"title":"2001: A Space Odyssey","popularity":37.766,"poster_path":"\/90T7b2LIrL07ndYQBmSm09yqVEH.jpg","original_language":"en","original_title":"2001: A Space Odyssey","genre_ids":[878,9648,12],"backdrop_path":"\/6gyZF4SeifiUUYDELkCS8nOqsu2.jpg","adult":false,"overview":"Humanity finds a mysterious object buried beneath the lunar surface and sets off to find its origins with the help of HAL 9000, the world's most advanced super computer.","release_date":"1968-04-09"},{"vote_count":9434,"id":245891,"video":false,"vote_average":7.1,"title":"John Wick","popularity":37.394,"poster_path":"\/b9uYMMbm87IBFOq59pppvkkkgNg.jpg","original_language":"en","original_title":"John Wick","genre_ids":[28,53],"backdrop_path":"\/umC04Cozevu8nn3JTDJ1pc7PVTn.jpg","adult":false,"overview":"Ex-hitman John Wick comes out of retirement to track down the gangsters that took everything from him.","release_date":"2014-10-22"},{"vote_count":106,"id":440472,"video":false,"vote_average":7.5,"title":"The Upside","popularity":37.078,"poster_path":"\/hPZ2caow1PCND6qnerfgn6RTXdm.jpg","original_language":"en","original_title":"The Upside","genre_ids":[35,18],"backdrop_path":"\/mzXGbLVZfdP2ouKH7dztjp9yK94.jpg","adult":false,"overview":"Phillip is a wealthy quadriplegic who needs a caretaker to help him with his day-to-day routine in his New York penthouse. He decides to hire Dell, a struggling parolee who's trying to reconnect with his ex and his young son. Despite coming from two different worlds, an unlikely friendship starts to blossom.","release_date":"2019-01-10"},{"vote_count":14936,"id":1726,"video":false,"vote_average":7.5,"title":"Iron Man","popularity":36.787,"poster_path":"\/rYy4MShKrZVXhiG4BLqwW1PeSOT.jpg","original_language":"en","original_title":"Iron Man","genre_ids":[28,878,12],"backdrop_path":"\/ZQixhAZx6fH1VNafFXsqa1B8QI.jpg","adult":false,"overview":"After being held captive in an Afghan cave, billionaire engineer Tony Stark creates a unique weaponized suit of armor to fight evil.","release_date":"2008-04-30"},{"vote_count":10888,"id":315635,"video":false,"vote_average":7.4,"title":"Spider-Man: Homecoming","popularity":36.72,"poster_path":"\/kY2c7wKgOfQjvbqe7yVzLTYkxJO.jpg","original_language":"en","original_title":"Spider-Man: Homecoming","genre_ids":[28,12,878,18],"backdrop_path":"\/vc8bCGjdVp0UbMNLzHnHSLRbBWQ.jpg","adult":false,"overview":"Following the events of Captain America: Civil War, Peter Parker, with the help of his mentor Tony Stark, tries to balance his life as an ordinary high school student in Queens, New York City, with fighting crime as his superhero alter ego Spider-Man as a new threat, the Vulture, emerges.","release_date":"2017-07-05"},{"vote_count":12693,"id":278,"video":false,"vote_average":8.7,"title":"The Shawshank Redemption","popularity":36.718,"poster_path":"\/9O7gLzmreU0nGkIB6K3BsJbzvNv.jpg","original_language":"en","original_title":"The Shawshank Redemption","genre_ids":[18,80],"backdrop_path":"\/j9XKiZrVeViAixVRzCta7h1VU9W.jpg","adult":false,"overview":"Framed in the 1940s for the double murder of his wife and her lover, upstanding banker Andy Dufresne begins a new life at the Shawshank prison, where he puts his accounting skills to work for an amoral warden. During his long stretch in prison, Dufresne comes to be admired by the other inmates -- including an older prisoner named Red -- for his integrity and unquenchable sense of hope.","release_date":"1994-09-23"},{"vote_count":11720,"id":10138,"video":false,"vote_average":6.8,"title":"Iron Man 2","popularity":36.509,"poster_path":"\/ArqpkNYGfcTIA6umWt6xihfIZZv.jpg","original_language":"en","original_title":"Iron Man 2","genre_ids":[12,28,878],"backdrop_path":"\/jxdSxqAFrdioKgXwgTs5Qfbazjq.jpg","adult":false,"overview":"With the world now aware of his dual life as the armored superhero Iron Man, billionaire inventor Tony Stark faces pressure from the government, the press and the public to share his technology with the military. Unwilling to let go of his invention, Stark, with Pepper Potts and James 'Rhodey' Rhodes at his side, must forge new alliances – and confront powerful enemies.","release_date":"2010-04-28"},{"vote_count":2582,"id":439079,"video":false,"vote_average":5.6,"title":"The Nun","popularity":36.396,"poster_path":"\/sFC1ElvoKGdHJIWRpNB3xWJ9lJA.jpg","original_language":"en","original_title":"The Nun","genre_ids":[27,9648,53],"backdrop_path":"\/fgsHxz21B27hOOqQBiw9L6yWcM7.jpg","adult":false,"overview":"When a young nun at a cloistered abbey in Romania takes her own life, a priest with a haunted past and a novitiate on the threshold of her final vows are sent by the Vatican to investigate. Together they uncover the order’s unholy secret. Risking not only their lives but their faith and their very souls, they confront a malevolent force in the form of the same demonic nun that first terrorized audiences in “The Conjuring 2” as the abbey becomes a horrific battleground between the living and the damned.","release_date":"2018-09-05"},{"vote_count":370,"id":280217,"video":false,"vote_average":6.7,"title":"The Lego Movie 2: The Second Part","popularity":36.274,"poster_path":"\/QTESAsBVZwjtGJNDP7utiGV37z.jpg","original_language":"en","original_title":"The Lego Movie 2: The Second Part","genre_ids":[28,12,16,35,10751,878,14],"backdrop_path":"\/8kPozGb4BDrcWBSsGPrkULG2tP9.jpg","adult":false,"overview":"It's been five years since everything was awesome and the citizens are facing a huge new threat: LEGO DUPLO® invaders from outer space, wrecking everything faster than they can rebuild.","release_date":"2019-01-26"},{"vote_count":7210,"id":141052,"video":false,"vote_average":6.2,"title":"Justice League","popularity":36.23,"poster_path":"\/eifGNCSDuxJeS1loAXil5bIGgvC.jpg","original_language":"en","original_title":"Justice League","genre_ids":[28,12,14,878],"backdrop_path":"\/o5T8rZxoWSBMYwjsUFUqTt6uMQB.jpg","adult":false,"overview":"Fuelled by his restored faith in humanity and inspired by Superman's selfless act, Bruce Wayne and Diana Prince assemble a team of metahumans consisting of Barry Allen, Arthur Curry and Victor Stone to face the catastrophic threat of Steppenwolf and the Parademons who are on the hunt for three Mother Boxes on Earth.","release_date":"2017-11-15"}]}