{"page":2,"total_results":410073,"total_pages":20504,"results":[{"vote_count":15,"id":485811,"video":false,"vote_average":4.5,"title":"Redcon-1","popularity":82.071,"poster_path":"\/vVPrWngVJ2cfYAncBedQty69Dlf.jpg","original_language":"en","original_title":"Redcon-1","genre_ids":[28,27],"backdrop_path":"\/palbhPOSYf2g1p18vWd91dDhZLM.jpg","adult":false,"overview":"After a zombie apocalypse spreads from a London prison, the UK is brought to its knees. The spread of the virus is temporarily contained but, without a cure, it’s only a matter of time before it breaks its boundaries and the biggest problem of all… any zombies with combat skills are now enhanced. With the South East of England quarantined from the rest of the world using fortified borders, intelligence finds that the scientist responsible for the outbreak is alive and well in London. With his recovery being the only hope of a cure, a squad of eight Special Forces soldiers is sent on a suicide mission to the city, now ruled by the undead, with a single task: get him out alive within 72 hours by any means necessary. What emerges is an unlikely pairing on a course to save humanity against ever-rising odds.","release_date":"2018-09-28"},{"vote_count":1173,"id":400650,"video":false,"vote_average":6.7,"title":"Mary Poppins Returns","popularity":81.41,"poster_path":"\/uTVGku4LibMGyKgQvjBtv3OYfAX.jpg","original_language":"en","original_title":"Mary Poppins Returns","genre_ids":[14,10751,35],"backdrop_path":"\/cwiJQXezWz876K3jS57Sq56RYCZ.jpg","adult":false,"overview":"In Depression-era London, a now-grown Jane and Michael Banks, along with Michael's three children, are visited by the enigmatic Mary Poppins following a personal loss. Through her unique magical skills, and with the aid of her friend Jack, she helps the family rediscover the joy and wonder missing in their lives.","release_date":"2018-12-13"},{"vote_count":8,"id":543103,"video":false,"vote_average":4.8,"title":"Kamen Rider Heisei Generations FOREVER","popularity":80.564,"poster_path":"\/6sOFQDlkY6El1B2P5gklzJfVdsT.jpg","original_language":"ja","original_title":"仮面ライダー平成ジェネレーションズFOREVER","genre_ids":[28,12,878],"backdrop_path":"\/uufTqD2CSn1NqL3cXEl4Vp3bCav.jpg","adult":false,"overview":"In the world of Sougo Tokiwa and Sento Kiryu, their \"companions\" are losing their memories one after the other as they're replaced by other people. The Super Time Jacker, Tid , appears before them. He orders his powerful underlings, Another Double and Another Den-O, to pursue a young boy called Shingo. While fighting to protect Shingo, Sougo meets Ataru, a young man who loves Riders, but Ataru says that Kamen Riders aren't real. What is the meaning of those words? While the mystery deepens, the true enemy that Sougo and Sento must defeat appears in the Kuriogatake mountain...","release_date":"2018-12-22"},{"vote_count":2175,"id":404368,"video":false,"vote_average":7.2,"title":"Ralph Breaks the Internet","popularity":78.355,"poster_path":"\/lvfIaThG5HA8THf76nghKinjjji.jpg","original_language":"en","original_title":"Ralph Breaks the Internet","genre_ids":[10751,16,35,14],"backdrop_path":"\/88poTBTafMXaz73vYi3c74g0y2k.jpg","adult":false,"overview":"Video game bad guy Ralph and fellow misfit Vanellope von Schweetz must risk it all by traveling to the World Wide Web in search of a replacement part to save Vanellope's video game, \"Sugar Rush.\" In way over their heads, Ralph and Vanellope rely on the citizens of the internet -- the netizens -- to help navigate their way, including an entrepreneur named Yesss, who is the head algorithm and the heart and soul of trend-making site BuzzzTube.","release_date":"2018-11-20"},{"vote_count":1179,"id":504172,"video":false,"vote_average":6.5,"title":"The Mule","popularity":77.257,"poster_path":"\/oeZh7yEz3PMnZLgBPhrafFHRbVz.jpg","original_language":"en","original_title":"The Mule","genre_ids":[80,18,53],"backdrop_path":"\/bTeRgkAavyw1eCtSkaww18wLYNP.jpg","adult":false,"overview":"Earl Stone, a man in his 80s who is broke, alone, and facing foreclosure of his business when he is offered a job that simply requires him to drive. Easy enough, but, unbeknownst to Earl, he’s just signed on as a drug courier for a Mexican cartel. He does so well that his cargo increases exponentially, and Earl hit the radar of hard-charging DEA agent Colin Bates.","release_date":"2018-12-14"},{"vote_count":1827,"id":399579,"video":false,"vote_average":6.6,"title":"Alita: Battle Angel","popularity":74.452,"poster_path":"\/xRWht48C2V8XNfzvPehyClOvDni.jpg","original_language":"en","original_title":"Alita: Battle Angel","genre_ids":[28,878,53,12],"backdrop_path":"\/aQXTw3wIWuFMy0beXRiZ1xVKtcf.jpg","adult":false,"overview":"When Alita awakens with no memory of who she is in a future world she does not recognize, she is taken in by Ido, a compassionate doctor who realizes that somewhere in this abandoned cyborg shell is the heart and soul of a young woman with an extraordinary past.","release_date":"2019-01-31"},{"vote_count":538,"id":512196,"video":false,"vote_average":6.1,"title":"Happy Death Day 2U","popularity":74.279,"poster_path":"\/4tdnePOkOOzwuGPEOAHp8UA4vqx.jpg","original_language":"en","original_title":"Happy Death Day 2U","genre_ids":[27,9648,53,878,35],"backdrop_path":"\/dhNJHBDacrZjSPtwaiwp3idpzxU.jpg","adult":false,"overview":"Collegian Tree Gelbman wakes up in horror to learn that she's stuck in a parallel universe. Her boyfriend Carter is now with someone else, and her friends and fellow students seem to be completely different versions of themselves. When Tree discovers that Carter's roommate has been altering time, she finds herself once again the target of a masked killer. When the psychopath starts to go after her inner circle, Tree soon realizes that she must die over and over again to save everyone.","release_date":"2019-02-13"},{"vote_count":11821,"id":283995,"video":false,"vote_average":7.7,"title":"Guardians of the Galaxy Vol. 2","popularity":68.942,"poster_path":"\/y4MBh0EjBlMuOzv9axM4qJlmhzz.jpg","original_language":"en","original_title":"Guardians of the Galaxy Vol. 2","genre_ids":[28,12,35,878],"backdrop_path":"\/aJn9XeesqsrSLKcHfHP4u5985hn.jpg","adult":false,"overview":"The Guardians must fight to keep their newfound family together as they unravel the mysteries of Peter Quill's true parentage.","release_date":"2017-04-19"},{"vote_count":1382,"id":428078,"video":false,"vote_average":6,"title":"Mortal Engines","popularity":66.985,"poster_path":"\/uXJVpPXxZO4L8Rz3IG1Y8XvZJcg.jpg","original_language":"en","original_title":"Mortal Engines","genre_ids":[878,28,12,14,53],"backdrop_path":"\/jnOuttTfG9KKpmOZtprC4pA1AlZ.jpg","adult":false,"overview":"Many thousands of years in the future, Earth’s cities roam the globe on huge wheels, devouring each other in a struggle for ever diminishing resources. On one of these massive traction cities, the old London, Tom Natsworthy has an unexpected encounter with a mysterious young woman from the wastelands who will change the course of his life forever.","release_date":"2018-11-27"},{"vote_count":23,"id":537915,"video":false,"vote_average":7.4,"title":"After","popularity":66.184,"poster_path":"\/u3B2YKUjWABcxXZ6Nm9h10hLUbh.jpg","original_language":"en","original_title":"After","genre_ids":[18,10749,53],"backdrop_path":"\/8lESY7UGpOsbL2caib9Qe4bOebF.jpg","adult":false,"overview":"A young woman falls for a guy with a dark secret and the two embark on a rocky relationship.","release_date":"2019-04-11"},{"vote_count":4315,"id":338952,"video":false,"vote_average":6.9,"title":"Fantastic Beasts: The Crimes of Grindelwald","popularity":66.042,"poster_path":"\/fMMrl8fD9gRCFJvsx0SuFwkEOop.jpg","original_language":"en","original_title":"Fantastic Beasts: The Crimes of Grindelwald","genre_ids":[10751,14,12],"backdrop_path":"\/wDN3FIcQQ1HI7mz1OOKYHSQtaiE.jpg","adult":false,"overview":"Gellert Grindelwald has escaped imprisonment and has begun gathering followers to his cause—elevating wizards above all non-magical beings. The only one capable of putting a stop to him is the wizard he once called his closest friend, Albus Dumbledore. However, Dumbledore will need to seek help from the wizard who had thwarted Grindelwald once before, his former student Newt Scamander, who agrees to help, unaware of the dangers that lie ahead. Lines are drawn as love and loyalty are tested, even among the truest friends and family, in an increasingly divided wizarding world.","release_date":"2018-11-14"},{"vote_count":15,"id":576071,"video":false,"vote_average":6.4,"title":"Unplanned","popularity":65.698,"poster_path":"\/hQvf3RHgmp4XXXl2y6zhMe4G4kg.jpg","original_language":"en","original_title":"Unplanned","genre_ids":[18],"backdrop_path":"\/tgjwS3oh53biNsNuzRKUjUVdXAE.jpg","adult":false,"overview":"As one of the youngest Planned Parenthood clinic directors in the nation, Abby Johnson was involved in upwards of 22,000 abortions and counseled countless women on their reproductive choices. Her passion surrounding a woman's right to choose led her to become a spokesperson for Planned Parenthood, fighting to enact legislation for the cause she so deeply believed in. Until the day she saw something that changed everything.","release_date":"2019-03-21"},{"vote_count":0,"id":460539,"video":false,"vote_average":0,"title":"Kuppathu Raja","popularity":65.219,"poster_path":"\/wzLde7keWQqWA0CJYVz0X5RVKjd.jpg","original_language":"ta","original_title":"குப்பத்து ராஜா","genre_ids":[28,35,18],"backdrop_path":null,"adult":false,"overview":"Kuppathu Raja is an upcoming Tamil comedy drama film directed by Baba Bhaskar. The film features G. V. Prakash Kumar and Parthiban in the lead roles.","release_date":"2019-04-05"},{"vote_count":18735,"id":24428,"video":false,"vote_average":7.6,"title":"The Avengers","popularity":62.654,"poster_path":"\/cezWGskPY5x7GaglTTRN4Fugfb8.jpg","original_language":"en","original_title":"The Avengers","genre_ids":[878,28,12],"backdrop_path":"\/hbn46fQaRmlpBuUrEiFqv0GDL6Y.jpg","adult":false,"overview":"When an unexpected enemy emerges and threatens global safety and security, Nick Fury, director of the international peacekeeping agency known as S.H.I.E.L.D., finds himself in need of a team to pull the world back from the brink of disaster. Spanning the globe, a daring recruitment effort begins!","release_date":"2012-04-25"},{"vote_count":40,"id":411728,"video":false,"vote_average":8,"title":"The Professor and the Madman","popularity":61.711,"poster_path":"\/yBaf5WjUqTQbc6mzPQBUcBiauDI.jpg","original_language":"en","original_title":"The Professor and the Madman","genre_ids":[18,36],"backdrop_path":"\/5Zjh2jPZyN0tuXmKXKuLEWy0k2S.jpg","adult":false,"overview":"Professor James Murray begins work compiling words for the first edition of the Oxford English Dictionary in the mid 19th century and receives over 10,000 entries from a patient at Broadmoor Criminal Lunatic Asylum , Dr William Minor.","release_date":"2019-03-07"},{"vote_count":17210,"id":118340,"video":false,"vote_average":7.9,"title":"Guardians of the Galaxy","popularity":61.412,"poster_path":"\/y31QB9kn3XSudA15tV7UWQ9XLuW.jpg","original_language":"en","original_title":"Guardians of the Galaxy","genre_ids":[28,878,12],"backdrop_path":"\/bHarw8xrmQeqf3t8HpuMY7zoK4x.jpg","adult":false,"overview":"Light years from Earth, 26 years after being abducted, Peter Quill finds himself the prime target of a manhunt after discovering an orb wanted by Ronan the Accuser.","release_date":"2014-07-30"},{"vote_count":119,"id":450001,"video":false,"vote_average":5.1,"title":"Master Z: Ip Man Legacy","popularity":59.604,"poster_path":"\/nkCoAik5I4j3Gkd2upj9xv4F0QN.jpg","original_language":"cn","original_title":"葉問外傳：張天志","genre_ids":[28],"backdrop_path":"\/grtVFGJ4ts0nDAPpc1JWbBoVKTu.jpg","adult":false,"overview":"After being defeated by Ip Man, Cheung Tin Chi is attempting to keep a low profile. While going about his business, he gets into a fight with a foreigner by the name of Davidson, who is a big boss behind the bar district. Tin Chi fights hard with Wing Chun and earns respect.","release_date":"2018-12-20"},{"vote_count":270,"id":527729,"video":false,"vote_average":7.1,"title":"Asterix: The Secret of the Magic Potion","popularity":59.305,"poster_path":"\/wmMq5ypRNJbWpdhC9aPjpdx1MMp.jpg","original_language":"fr","original_title":"Astérix - Le Secret de la Potion Magique","genre_ids":[16,10751,35,12],"backdrop_path":"\/9cPMIuB2tv4IP0LbeNhrK5OyDy5.jpg","adult":false,"overview":"Following a fall during mistletoe picking, Druid Getafix decides that it is time to secure the future of the village. Accompanied by Asterix and Obelix, he undertakes to travel the Gallic world in search of a talented young druid to transmit the Secret of the Magic Potion.","release_date":"2018-12-05"},{"vote_count":38,"id":500904,"video":false,"vote_average":4.9,"title":"A Vigilante","popularity":58.462,"poster_path":"\/avoKZfgBzyBGJsrAr2WQOwZK978.jpg","original_language":"en","original_title":"A Vigilante","genre_ids":[53,18],"backdrop_path":"\/kReEky4XRCAq22H5V37kDcNY9dj.jpg","adult":false,"overview":"A vigilante helps victims escape their domestic abusers.","release_date":"2019-03-29"},{"vote_count":265,"id":464504,"video":false,"vote_average":5.5,"title":"A Madea Family Funeral","popularity":57.821,"poster_path":"\/sFvOTUlZrIxCLdmz1fC16wK0lme.jpg","original_language":"en","original_title":"A Madea Family Funeral","genre_ids":[35],"backdrop_path":"\/piGjUloiaq6qTpaDLisyDyEsx9i.jpg","adult":false,"overview":"A joyous family reunion becomes a hilarious nightmare as Madea and the crew travel to backwoods Georgia, where they find themselves unexpectedly planning a funeral that might unveil unpleasant family secrets.","release_date":"2019-03-01"}]}