{"page":3,"total_results":410072,"total_pages":20504,"results":[{"vote_count":13412,"id":671,"video":false,"vote_average":7.8,"title":"Harry Potter and the Philosopher's Stone","popularity":57.203,"poster_path":"\/dCtFvscYcXQKTNvyyaQr2g2UacJ.jpg","original_language":"en","original_title":"Harry Potter and the Philosopher's Stone","genre_ids":[12,14,10751],"backdrop_path":"\/pZIiPOoNhhzVpBuVEpDK7vbBz4l.jpg","adult":false,"overview":"Harry Potter has lived under the stairs at his aunt and uncle's house his whole life. But on his 11th birthday, he learns he's a powerful wizard -- with a place waiting for him at the Hogwarts School of Witchcraft and Wizardry. As he learns to harness his newfound powers with the help of the school's kindly headmaster, Harry uncovers the truth about his parents' deaths -- and about the villain who's to blame.","release_date":"2001-11-16"},{"vote_count":326,"id":527641,"video":false,"vote_average":8.2,"title":"Five Feet Apart","popularity":56.068,"poster_path":"\/kreTuJBkUjVWePRfhHZuYfhNE1T.jpg","original_language":"en","original_title":"Five Feet Apart","genre_ids":[10749,18],"backdrop_path":"\/d7wa3VpUpKDQ7GG9EMw8zSJCFoI.jpg","adult":false,"overview":"Seventeen-year-old Stella spends most of her time in the hospital as a cystic fibrosis patient. Her life is full of routines, boundaries and self-control -- all of which get put to the test when she meets Will, an impossibly charming teen who has the same illness.","release_date":"2019-03-15"},{"vote_count":5627,"id":335983,"video":false,"vote_average":6.6,"title":"Venom","popularity":55.431,"poster_path":"\/2uNW4WbgBXL25BAbXGLnLqX71Sw.jpg","original_language":"en","original_title":"Venom","genre_ids":[878,28],"backdrop_path":"\/VuukZLgaCrho2Ar8Scl9HtV3yD.jpg","adult":false,"overview":"Investigative journalist Eddie Brock attempts a comeback following a scandal, but accidentally becomes the host of Venom, a violent, super powerful alien symbiote. Soon, he must rely on his newfound powers to protect the world from a shadowy organization looking for a symbiote of their own.","release_date":"2018-09-28"},{"vote_count":58,"id":449985,"video":false,"vote_average":5.7,"title":"Triple Threat","popularity":53.456,"poster_path":"\/cSpM3QxmoSLp4O1WAMQpUDcaB7R.jpg","original_language":"en","original_title":"Triple Threat","genre_ids":[53,28,80],"backdrop_path":"\/2f8fkWSWOVcTlWforoVpsuaCiwI.jpg","adult":false,"overview":"A crime syndicate places a hit on a billionaire's daughter, making her the target of an elite assassin squad. A small band of down-and-out mercenaries protects her, fighting tooth and nail to stop the assassins from reaching their target.","release_date":"2019-03-19"},{"vote_count":11507,"id":284054,"video":false,"vote_average":7.4,"title":"Black Panther","popularity":52.842,"poster_path":"\/uxzzxijgPIY7slzFvMotPv8wjKA.jpg","original_language":"en","original_title":"Black Panther","genre_ids":[28,12,14,878],"backdrop_path":"\/6ELJEzQJ3Y45HczvreC3dg0GV5R.jpg","adult":false,"overview":"King T'Challa returns home from America to the reclusive, technologically advanced African nation of Wakanda to serve as his country's new leader. However, T'Challa soon finds that he is challenged for the throne by factions within his own country as well as without. Using powers reserved to Wakandan kings, T'Challa assumes the Black Panther mantel to join with girlfriend Nakia, the queen-mother, his princess-kid sister, members of the Dora Milaje (the Wakandan 'special forces') and an American secret agent, to prevent Wakanda from being dragged into a world war.","release_date":"2018-02-13"},{"vote_count":5462,"id":363088,"video":false,"vote_average":7,"title":"Ant-Man and the Wasp","popularity":52.48,"poster_path":"\/rv1AWImgx386ULjcf62VYaW8zSt.jpg","original_language":"en","original_title":"Ant-Man and the Wasp","genre_ids":[28,12,878,35,10751],"backdrop_path":"\/6P3c80EOm7BodndGBUAJHHsHKrp.jpg","adult":false,"overview":"Just when his time under house arrest is about to end, Scott Lang once again puts his freedom at risk to help Hope van Dyne and Dr. Hank Pym dive into the quantum realm and try to accomplish, against time and any chance of success, a very dangerous rescue mission.","release_date":"2018-07-04"},{"vote_count":1956,"id":480530,"video":false,"vote_average":6.6,"title":"Creed II","popularity":52.273,"poster_path":"\/v3QyboWRoA4O9RbcsqH8tJMe8EB.jpg","original_language":"en","original_title":"Creed II","genre_ids":[18],"backdrop_path":"\/6JHYYbvoSuQ95ceGx8Oeg8zzAjg.jpg","adult":false,"overview":"Between personal obligations and training for his next big fight against an opponent with ties to his family's past, Adonis Creed is up against the challenge of his life.","release_date":"2018-11-21"},{"vote_count":155,"id":508763,"video":false,"vote_average":6.3,"title":"A Dog's Way Home","popularity":52.228,"poster_path":"\/pZn87R7gtmMCGGO8KeaAfZDhXLg.jpg","original_language":"en","original_title":"A Dog's Way Home","genre_ids":[18,10751,12],"backdrop_path":"\/w7MsyOpP003FYhsiTgVHa3rNsrz.jpg","adult":false,"overview":"A Dog’s Way Home chronicles the heartwarming adventure of Bella, a dog who embarks on an epic 400-mile journey home after she is separated from her beloved human.","release_date":"2019-01-10"},{"vote_count":18018,"id":157336,"video":false,"vote_average":8.2,"title":"Interstellar","popularity":51.647,"poster_path":"\/nBNZadXqJSdt05SHLqgT0HuC5Gm.jpg","original_language":"en","original_title":"Interstellar","genre_ids":[12,18,878],"backdrop_path":"\/xu9zaAevzQ5nnrsXN6JcahLnG4i.jpg","adult":false,"overview":"Interstellar chronicles the adventures of a group of explorers who make use of a newly discovered wormhole to surpass the limitations on human space travel and conquer the vast distances involved in an interstellar voyage.","release_date":"2014-11-05"},{"vote_count":799,"id":399361,"video":false,"vote_average":6.2,"title":"Triple Frontier","popularity":49.374,"poster_path":"\/aBw8zYuAljVM1FeK5bZKITPH8ZD.jpg","original_language":"en","original_title":"Triple Frontier","genre_ids":[28,53,80,12],"backdrop_path":"\/s9I2LmQMYCanl6DvC3X1AOHs2r8.jpg","adult":false,"overview":"Struggling to make ends meet, former special ops soldiers reunite for a high-stakes heist: stealing $75 million from a South American drug lord.","release_date":"2019-03-06"},{"vote_count":51,"id":400157,"video":false,"vote_average":6.1,"title":"Wonder Park","popularity":48.58,"poster_path":"\/8KomINZhIuJeB4oB7k7tkq8tmE.jpg","original_language":"en","original_title":"Wonder Park","genre_ids":[35,16,12,10751,14],"backdrop_path":"\/nJyAdKPnW15IAvC6sLBTE0lp6Dv.jpg","adult":false,"overview":"The story of a magnificent amusement park where the imagination of a wildly creative girl named June comes alive.","release_date":"2019-03-14"},{"vote_count":6764,"id":424694,"video":false,"vote_average":8.1,"title":"Bohemian Rhapsody","popularity":48.144,"poster_path":"\/lHu1wtNaczFPGFDTrjCSzeLPTKN.jpg","original_language":"en","original_title":"Bohemian Rhapsody","genre_ids":[18,10402],"backdrop_path":"\/xcaSYLBhmDzJ6P14bcKe0KTh3QV.jpg","adult":false,"overview":"Singer Freddie Mercury, guitarist Brian May, drummer Roger Taylor and bass guitarist John Deacon take the music world by storm when they form the rock 'n' roll band Queen in 1970. Hit songs become instant classics. When Mercury's increasingly wild lifestyle starts to spiral out of control, Queen soon faces its greatest challenge yet – finding a way to keep the band together amid the success and excess.","release_date":"2018-10-24"},{"vote_count":10679,"id":284053,"video":false,"vote_average":7.5,"title":"Thor: Ragnarok","popularity":47.96,"poster_path":"\/rzRwTcFvttcN1ZpX2xv4j3tSdJu.jpg","original_language":"en","original_title":"Thor: Ragnarok","genre_ids":[28,12,35,14,878],"backdrop_path":"\/kaIfm5ryEOwYg8mLbq8HkPuM1Fo.jpg","adult":false,"overview":"Thor is imprisoned on the other side of the universe and finds himself in a race against time to get back to Asgard to stop Ragnarok, the destruction of his home-world and the end of Asgardian civilization, at the hands of an all-powerful new threat, the ruthless Hela.","release_date":"2017-10-25"},{"vote_count":12674,"id":99861,"video":false,"vote_average":7.3,"title":"Avengers: Age of Ultron","popularity":46.907,"poster_path":"\/t90Y3G8UGQp0f0DrP60wRu9gfrH.jpg","original_language":"en","original_title":"Avengers: Age of Ultron","genre_ids":[28,12,878],"backdrop_path":"\/rFtsE7Lhlc2jRWF7SRAU0fvrveQ.jpg","adult":false,"overview":"When Tony Stark tries to jumpstart a dormant peacekeeping program, things go awry and Earth’s Mightiest Heroes are put to the ultimate test as the fate of the planet hangs in the balance. As the villainous Ultron emerges, it is up to The Avengers to stop him from enacting his terrible plans, and soon uneasy alliances and unexpected action pave the way for an epic and unique global adventure.","release_date":"2015-04-22"},{"vote_count":8143,"id":383498,"video":false,"vote_average":7.5,"title":"Deadpool 2","popularity":46.903,"poster_path":"\/to0spRl1CMDvyUbOnbb4fTk3VAd.jpg","original_language":"en","original_title":"Deadpool 2","genre_ids":[28,35,12],"backdrop_path":"\/3P52oz9HPQWxcwHOwxtyrVV1LKi.jpg","adult":false,"overview":"Wisecracking mercenary Deadpool battles the evil and powerful Cable and other bad guys to save a boy's life.","release_date":"2018-05-15"},{"vote_count":8416,"id":12155,"video":false,"vote_average":6.6,"title":"Alice in Wonderland","popularity":46.088,"poster_path":"\/pvEE5EN5N1yjmHmldfL4aJWm56l.jpg","original_language":"en","original_title":"Alice in Wonderland","genre_ids":[10751,14,12],"backdrop_path":"\/AmCtBQc5KxJfJVdS2TkY4Pc9lPd.jpg","adult":false,"overview":"Alice, an unpretentious and individual 19-year-old, is betrothed to a dunce of an English nobleman. At her engagement party, she escapes the crowd to consider whether to go through with the marriage and falls down a hole in the garden after spotting an unusual rabbit. Arriving in a strange and surreal place called 'Underland,' she finds herself in a world that resembles the nightmares she had as a child, filled with talking animals, villainous queens and knights, and frumious bandersnatches. Alice realizes that she is there for a reason – to conquer the horrific Jabberwocky and restore the rightful queen to her throne.","release_date":"2010-03-03"},{"vote_count":31,"id":537059,"video":false,"vote_average":6.5,"title":"Justice League vs. the Fatal Five","popularity":45.645,"poster_path":"\/drFnF8OcbhXPjaKJooXFLq7V5rD.jpg","original_language":"en","original_title":"Justice League vs. the Fatal Five","genre_ids":[16,28,878],"backdrop_path":"\/LJzyrq1ixZE8o10DbLkuEDYc7M.jpg","adult":false,"overview":"The Justice League faces a powerful new threat — the Fatal Five! Superman, Batman and Wonder Woman seek answers as the time-traveling trio of Mano, Persuader and Tharok terrorize Metropolis in search of budding Green Lantern, Jessica Cruz. With her unwilling help, they aim to free remaining Fatal Five members Emerald Empress and Validus to carry out their sinister plan. But the Justice League has also discovered an ally from another time in the peculiar Star Boy — brimming with volatile power, could he be the key to thwarting the Fatal Five? An epic battle against ultimate evil awaits!","release_date":"2019-03-30"},{"vote_count":11973,"id":22,"video":false,"vote_average":7.7,"title":"Pirates of the Caribbean: The Curse of the Black Pearl","popularity":45.353,"poster_path":"\/tkt9xR1kNX5R9rCebASKck44si2.jpg","original_language":"en","original_title":"Pirates of the Caribbean: The Curse of the Black Pearl","genre_ids":[12,14,28],"backdrop_path":"\/8AUQ7YlJJA9C8kWk8P4YNHIcFDE.jpg","adult":false,"overview":"Jack Sparrow, a freewheeling 18th-century pirate, quarrels with a rival pirate bent on pillaging Port Royal. When the governor's daughter is kidnapped, Sparrow decides to help the girl's love save her.","release_date":"2003-07-09"},{"vote_count":22,"id":441384,"video":false,"vote_average":5.2,"title":"The Beach Bum","popularity":44.876,"poster_path":"\/iXMxdC7T0t3dxislnUNybcvJmAH.jpg","original_language":"en","original_title":"The Beach Bum","genre_ids":[35],"backdrop_path":"\/1FEwqMqx8w4qQC0IV5HYZkGwiAK.jpg","adult":false,"overview":"An irreverent comedy about the misadventures of Moondog, a rebellious stoner and lovable rogue who lives large.","release_date":"2019-03-21"},{"vote_count":5638,"id":351286,"video":false,"vote_average":6.5,"title":"Jurassic World: Fallen Kingdom","popularity":44.646,"poster_path":"\/c9XxwwhPHdaImA2f1WEfEsbhaFB.jpg","original_language":"en","original_title":"Jurassic World: Fallen Kingdom","genre_ids":[28,12,878],"backdrop_path":"\/3s9O5af2xWKWR5JzP2iJZpZeQQg.jpg","adult":false,"overview":"Three years after the demise of Jurassic World, a volcanic eruption threatens the remaining dinosaurs on the isla Nublar, so Claire Dearing, the former park manager, recruits Owen Grady to help prevent the extinction of the dinosaurs once again.","release_date":"2018-06-06"}]}