{"page":4,"total_results":410072,"total_pages":20504,"results":[{"vote_count":9911,"id":381288,"video":false,"vote_average":7.2,"title":"Split","popularity":44.394,"poster_path":"\/rXMWOZiCt6eMX22jWuTOSdQ98bY.jpg","original_language":"en","original_title":"Split","genre_ids":[27,53],"backdrop_path":"\/9pkZesKMnblFfKxEhQx45YQ2kIe.jpg","adult":false,"overview":"Though Kevin has evidenced 23 personalities to his trusted psychiatrist, Dr. Fletcher, there remains one still submerged who is set to materialize and dominate all the others. Compelled to abduct three teenage girls led by the willful, observant Casey, Kevin reaches a war for survival among all of those contained within him — as well as everyone around him — as the walls between his compartments shatter apart.","release_date":"2017-01-19"},{"vote_count":0,"id":514439,"video":false,"vote_average":0,"title":"Breakthrough","popularity":44.25,"poster_path":"\/t58dx7JIgchr9If5uxn3NmHaHoS.jpg","original_language":"en","original_title":"Breakthrough","genre_ids":[18],"backdrop_path":"\/6jaNHf9ja84YG3KWMDK1nOnvGDg.jpg","adult":false,"overview":"When he was 14, Smith drowned in Lake St. Louis and was dead for nearly an hour. According to reports at the time, CPR was performed 27 minutes to no avail. Then the youth's mother, Joyce Smith, entered the room, praying loudly. Suddenly, there was a pulse, and Smith came around.","release_date":"2019-04-11"},{"vote_count":186,"id":327331,"video":false,"vote_average":7.3,"title":"The Dirt","popularity":44.187,"poster_path":"\/xGY5rr8441ib0lT9mtHZn7e8Aay.jpg","original_language":"en","original_title":"The Dirt","genre_ids":[18,10402,35],"backdrop_path":"\/lFLwxSd9JReOBBxoUwQFBANcyIl.jpg","adult":false,"overview":"The story of Mötley Crüe and their rise from the Sunset Strip club scene of the early 1980s to superstardom.","release_date":"2019-03-22"},{"vote_count":171,"id":423949,"video":false,"vote_average":6.6,"title":"Unicorn Store","popularity":43.515,"poster_path":"\/rGe3eWy3F3qggDZMc86bASN4I7C.jpg","original_language":"en","original_title":"Unicorn Store","genre_ids":[14,18,35],"backdrop_path":"\/1ltcMaCX5kPOEA4NFTSBnvBFNbY.jpg","adult":false,"overview":"A woman named Kit moves back to her parent's house, where she receives a mysterious invitation that would fulfill her childhood dreams.","release_date":"2017-09-11"},{"vote_count":946,"id":429197,"video":false,"vote_average":7.2,"title":"Vice","popularity":43.473,"poster_path":"\/1gCab6rNv1r6V64cwsU4oEr649Y.jpg","original_language":"en","original_title":"Vice","genre_ids":[18,36,35],"backdrop_path":"\/7TTlvADXSxg0yzlGTZFExmw4TSC.jpg","adult":false,"overview":"George W. Bush picks Dick Cheney, the CEO of Halliburton Co., to be his Republican running mate in the 2000 presidential election. No stranger to politics, Cheney's impressive résumé includes stints as White House chief of staff, House Minority Whip and defense secretary. When Bush wins by a narrow margin, Cheney begins to use his newfound power to help reshape the country and the world.","release_date":"2018-12-25"},{"vote_count":13318,"id":271110,"video":false,"vote_average":7.3,"title":"Captain America: Civil War","popularity":42.947,"poster_path":"\/kSBXou5Ac7vEqKd97wotJumyJvU.jpg","original_language":"en","original_title":"Captain America: Civil War","genre_ids":[12,28,878],"backdrop_path":"\/yi3hZ4mQq8JGyJSi3MBW5nMj1f.jpg","adult":false,"overview":"Following the events of Age of Ultron, the collective governments of the world pass an act designed to regulate all superhuman activity. This polarizes opinion amongst the Avengers, causing two factions to side with Iron Man or Captain America, which causes an epic battle between former allies.","release_date":"2016-04-27"},{"vote_count":14031,"id":120,"video":false,"vote_average":8.3,"title":"The Lord of the Rings: The Fellowship of the Ring","popularity":42.726,"poster_path":"\/56zTpe2xvaA4alU51sRWPoKPYZy.jpg","original_language":"en","original_title":"The Lord of the Rings: The Fellowship of the Ring","genre_ids":[12,14,28],"backdrop_path":"\/pIUvQ9Ed35wlWhY2oU6OmwEsmzG.jpg","adult":false,"overview":"Young hobbit Frodo Baggins, after inheriting a mysterious ring from his uncle Bilbo, must leave his home in order to keep it from falling into the hands of its evil creator. Along the way, a fellowship is formed to protect the ringbearer and make sure that the ring arrives at its final destination: Mt. Doom, the only place where it can be destroyed.","release_date":"2001-12-18"},{"vote_count":295,"id":438650,"video":false,"vote_average":5.2,"title":"Cold Pursuit","popularity":42.452,"poster_path":"\/hXgmWPd1SuujRZ4QnKLzrj79PAw.jpg","original_language":"en","original_title":"Cold Pursuit","genre_ids":[53,28,18],"backdrop_path":"\/7Wg6FOEvhduISlxSzSCutAl4lPq.jpg","adult":false,"overview":"Nels Coxman's quiet life comes crashing down when his beloved son dies under mysterious circumstances. His search for the truth soon becomes a quest for revenge as he seeks coldblooded justice against a drug lord and his inner circle.","release_date":"2019-02-07"},{"vote_count":6045,"id":562,"video":false,"vote_average":7.7,"title":"Die Hard","popularity":42.247,"poster_path":"\/mc7MubOLcIw3MDvnuQFrO9psfCa.jpg","original_language":"en","original_title":"Die Hard","genre_ids":[28,53],"backdrop_path":"\/eg049B1TJdWuKuyKowNmhZxNToc.jpg","adult":false,"overview":"NYPD cop John McClane's plan to reconcile with his estranged wife is thrown for a serious loop when, minutes after he arrives at her office, the entire building is overtaken by a group of terrorists. With little help from the LAPD, wisecracking McClane sets out to single-handedly rescue the hostages and bring the bad guys down.","release_date":"1988-07-15"},{"vote_count":248,"id":529216,"video":false,"vote_average":7.6,"title":"Mirage","popularity":42.17,"poster_path":"\/6S2wECQuy4QKaGgKvialqBfnPBY.jpg","original_language":"es","original_title":"Durante la tormenta","genre_ids":[878,53,18,10749],"backdrop_path":"\/7iPXOXHkm5985KovW1xe0grQ3Qg.jpg","adult":false,"overview":"Two storms separated by 25 years. A woman murdered. A daughter missed. Only 72 hours to discover the truth.","release_date":"2018-11-30"},{"vote_count":578,"id":399402,"video":false,"vote_average":6.2,"title":"Hunter Killer","popularity":41.602,"poster_path":"\/a0j18XNVhP4RcW3wXwsqT0kVoQm.jpg","original_language":"en","original_title":"Hunter Killer","genre_ids":[28,53],"backdrop_path":"\/gCIB3DdK00DyfwosVGf7pnFFdK3.jpg","adult":false,"overview":"Captain Glass of the USS “Arkansas” discovers that a coup d'état is taking place in Russia, so he and his crew join an elite group working on the ground to prevent a war.","release_date":"2018-10-19"},{"vote_count":981,"id":375588,"video":false,"vote_average":5.7,"title":"Robin Hood","popularity":41.093,"poster_path":"\/AiRfixFcfTkNbn2A73qVJPlpkUo.jpg","original_language":"en","original_title":"Robin Hood","genre_ids":[12,28,53],"backdrop_path":"\/axjFiijtxdfK3CD9dMwrdgLwblD.jpg","adult":false,"overview":"A war-hardened Crusader and his Moorish commander mount an audacious revolt against the corrupt English crown.","release_date":"2018-11-20"},{"vote_count":7334,"id":348,"video":false,"vote_average":8.1,"title":"Alien","popularity":41.007,"poster_path":"\/2h00HrZs89SL3tXB4nbkiM7BKHs.jpg","original_language":"en","original_title":"Alien","genre_ids":[27,878],"backdrop_path":"\/dfNrZ82poQ8blHWJreIv6JZQ9JA.jpg","adult":false,"overview":"During its return to the earth, commercial spaceship Nostromo intercepts a distress signal from a distant planet. When a three-member team of the crew discovers a chamber containing thousands of eggs on the planet, a creature inside one of the eggs attacks an explorer. The entire crew is unaware of the impending nightmare set to descend upon them when the alien parasite planted inside its unfortunate host is birthed.","release_date":"1979-05-25"},{"vote_count":8124,"id":122917,"video":false,"vote_average":7.2,"title":"The Hobbit: The Battle of the Five Armies","popularity":40.9,"poster_path":"\/9zRzFJuaj0CHIOhAkcCcFTvyu2X.jpg","original_language":"en","original_title":"The Hobbit: The Battle of the Five Armies","genre_ids":[28,12,14],"backdrop_path":"\/qhH3GyIfAnGv1pjdV3mw03qAilg.jpg","adult":false,"overview":"Immediately after the events of The Desolation of Smaug, Bilbo and the dwarves try to defend Erebor's mountain of treasure from others who claim it: the men of the ruined Laketown and the elves of Mirkwood. Meanwhile an army of Orcs led by Azog the Defiler is marching on Erebor, fueled by the rise of the dark lord Sauron. Dwarves, elves and men must unite, and the hope for Middle-Earth falls into Bilbo's hands.","release_date":"2014-12-10"},{"vote_count":182,"id":351044,"video":false,"vote_average":6.6,"title":"Welcome to Marwen","popularity":40.865,"poster_path":"\/o45VIAUYDcVCGuzd43l8Sr5Dfti.jpg","original_language":"en","original_title":"Welcome to Marwen","genre_ids":[18,35,14],"backdrop_path":"\/q9hnJ9SzwcF30seRtXEzLd5l1gw.jpg","adult":false,"overview":"When a devastating attack shatters Mark Hogancamp and wipes away all memories, no one expected recovery. Putting together pieces from his old and new life, Mark meticulously creates a wondrous town named Marwen where he can heal and be heroic. As he builds an astonishing art installation — a testament to the most powerful women he knows — through his fantasy world, he draws strength to triumph in the real one.","release_date":"2018-12-21"},{"vote_count":126,"id":426563,"video":false,"vote_average":4.2,"title":"Holmes & Watson","popularity":40.484,"poster_path":"\/orEUlKndjV1rEcWqXbbjegjfv97.jpg","original_language":"en","original_title":"Holmes & Watson","genre_ids":[9648,12,35,80],"backdrop_path":"\/5Zvu4SrY3p9qgnITkCn4jAQwKvB.jpg","adult":false,"overview":"Detective Sherlock Holmes and Dr. John Watson join forces to investigate a murder at Buckingham Palace. They soon learn that they have only four days to solve the case, or the queen will become the next victim.","release_date":"2018-12-25"},{"vote_count":5841,"id":260513,"video":false,"vote_average":7.6,"title":"Incredibles 2","popularity":40.48,"poster_path":"\/9lFKBtaVIhP7E2Pk0IY1CwTKTMZ.jpg","original_language":"en","original_title":"Incredibles 2","genre_ids":[28,12,16,10751],"backdrop_path":"\/mabuNsGJgRuCTuGqjFkWe1xdu19.jpg","adult":false,"overview":"Elastigirl springs into action to save the day, while Mr. Incredible faces his greatest challenge yet – taking care of the problems of his three children.","release_date":"2018-06-14"},{"vote_count":3411,"id":337167,"video":false,"vote_average":6.1,"title":"Fifty Shades Freed","popularity":40.244,"poster_path":"\/jjPJ4s3DWZZvI4vw8Xfi4Vqa1Q8.jpg","original_language":"en","original_title":"Fifty Shades Freed","genre_ids":[18,10749],"backdrop_path":"\/9ywA15OAiwjSTvg3cBs9B7kOCBF.jpg","adult":false,"overview":"Believing they have left behind shadowy figures from their past, newlyweds Christian and Ana fully embrace an inextricable connection and shared life of luxury. But just as she steps into her role as Mrs. Grey and he relaxes into an unfamiliar stability, new threats could jeopardize their happy ending before it even begins.","release_date":"2018-01-17"},{"vote_count":11350,"id":102899,"video":false,"vote_average":7.1,"title":"Ant-Man","popularity":40.216,"poster_path":"\/D6e8RJf2qUstnfkTslTXNTUAlT.jpg","original_language":"en","original_title":"Ant-Man","genre_ids":[878,28,12],"backdrop_path":"\/kvXLZqY0Ngl1XSw7EaMQO0C1CCj.jpg","adult":false,"overview":"Armed with the astonishing ability to shrink in scale but increase in strength, master thief Scott Lang must embrace his inner-hero and help his mentor, Doctor Hank Pym, protect the secret behind his spectacular Ant-Man suit from a new generation of towering threats. Against seemingly insurmountable obstacles, Pym and Lang must plan and pull off a heist that will save the world.","release_date":"2015-07-14"},{"vote_count":11694,"id":209112,"video":false,"vote_average":5.8,"title":"Batman v Superman: Dawn of Justice","popularity":40.216,"poster_path":"\/cGOPbv9wA5gEejkUN892JrveARt.jpg","original_language":"en","original_title":"Batman v Superman: Dawn of Justice","genre_ids":[28,12,14],"backdrop_path":"\/vsjBeMPZtyB7yNsYY56XYxifaQZ.jpg","adult":false,"overview":"Fearing the actions of a god-like Super Hero left unchecked, Gotham City’s own formidable, forceful vigilante takes on Metropolis’s most revered, modern-day savior, while the world wrestles with what sort of hero it really needs. And with Batman and Superman at war with one another, a new threat quickly arises, putting mankind in greater danger than it’s ever known before.","release_date":"2016-03-23"}]}